<svg width="13" height="13" viewBox="0 0 13 13" fill="none" xmlns="http://www.w3.org/2000/svg">
<g opacity="0.5">
<path fill-rule="evenodd" clip-rule="evenodd" d="M3.50747 1.08521L3.49206 1.08419C2.77877 1.051 1.7722 1.90866 1.40027 2.52899C0.992175 3.08641 0.984329 3.82666 1.3407 4.6829L1.39688 4.8122C2.33594 7.12486 5.85968 10.6442 8.1633 11.6077C9.0447 12.02 9.83026 12.0276 10.4492 11.5819C10.9934 11.2708 11.8858 10.2357 11.86 9.50055C11.8355 9.19809 11.6949 8.95118 11.4765 8.72641L11.4232 8.67345L11.2748 8.53627C10.7376 8.05587 9.80746 7.37191 9.51976 7.31145C9.18197 7.24102 8.95293 7.30407 8.59164 7.50327L8.45709 7.57979C8.20017 7.72794 8.1083 7.75328 7.9866 7.70887C6.70127 7.18121 5.79492 6.27031 5.26379 4.96372C5.22926 4.86691 5.24633 4.78237 5.35805 4.57738L5.41691 4.47285C5.66042 4.04755 5.74205 3.80713 5.66536 3.43691L5.65181 3.38893C5.526 3.02264 4.7549 1.98921 4.32675 1.53931L4.25777 1.46953C4.03464 1.25039 3.78928 1.10947 3.50747 1.08521ZM3.44772 1.87623L3.47709 1.88187C3.5285 1.89639 3.58912 1.93198 3.65738 1.99064L3.7071 2.0361L3.80094 2.13489C4.16497 2.53683 4.87022 3.48468 4.89355 3.59802C4.91559 3.70442 4.89121 3.79334 4.7757 4.00291L4.71526 4.10975C4.4609 4.55516 4.38216 4.84235 4.52833 5.24849C5.14537 6.76728 6.20737 7.83461 7.70328 8.44833C8.08908 8.58941 8.36258 8.53302 8.75007 8.32301L8.88282 8.24805C9.14573 8.09601 9.24199 8.06299 9.35917 8.08742C9.47369 8.11149 10.4983 8.88051 10.8739 9.2419L10.9178 9.28548C11.0146 9.38526 11.0676 9.47827 11.0733 9.54726C11.0785 9.70854 10.917 10.0115 10.6319 10.3422C10.4289 10.5777 10.1654 10.8183 10.0511 10.8982L10.0238 10.9158C9.65463 11.1793 9.19869 11.1906 8.59578 10.9337L8.481 10.8824C6.39823 10.0109 3.12278 6.76425 2.17677 4.63013L2.12071 4.49822C1.82758 3.84986 1.80326 3.37585 2.01374 3.03098L2.05594 2.96781C2.29989 2.56388 3.03507 1.92766 3.40112 1.87869L3.44772 1.87623ZM7.81164 1.21527L7.8652 1.21761C9.99383 1.45521 11.6748 3.14321 11.9141 5.28302C11.9384 5.50053 11.7827 5.69667 11.5664 5.72112C11.35 5.74557 11.1549 5.58906 11.1306 5.37156C10.9325 3.59976 9.54068 2.20211 7.7782 2.00539C7.56183 1.98124 7.4059 1.78531 7.42992 1.56777C7.44994 1.38649 7.58861 1.24741 7.75949 1.22006L7.81164 1.21527ZM7.84389 3.08794L7.89708 3.09468C8.98494 3.30786 9.83502 4.16252 10.0471 5.25623C10.0887 5.47106 9.94925 5.67916 9.73557 5.72104C9.52189 5.76291 9.3149 5.6227 9.27325 5.40787C9.12264 4.631 8.51896 4.02408 7.74625 3.87265C7.53257 3.83078 7.39311 3.62268 7.43476 3.40785C7.46947 3.22882 7.61899 3.10161 7.79153 3.08842L7.84389 3.08794Z" fill="white"/>
</g>
</svg>
