<svg width="36" height="36" viewBox="0 0 36 36" fill="none" xmlns="http://www.w3.org/2000/svg">
<path fill-rule="evenodd" clip-rule="evenodd" d="M18 36C8.05887 36 0 27.9411 0 18C0 8.05887 8.05887 0 18 0C27.9411 0 36 8.05887 36 18C36 27.9411 27.9411 36 18 36ZM18.5933 28.0144C24.4946 28.012 29.2942 23.2112 29.2966 17.3111C29.2977 14.4513 28.1854 11.7621 26.1647 9.73906C24.1439 7.7159 21.4565 6.60124 18.5932 6.6C12.6936 6.6 7.89209 11.4013 7.88974 17.3027C7.88893 19.1891 8.3818 21.0304 9.31846 22.6536L7.8 28.2L13.474 26.7116C15.0374 27.5643 16.7975 28.0138 18.5889 28.0144H18.5933Z" fill="#4788E8"/>
<path fill-rule="evenodd" clip-rule="evenodd" d="M13.7373 24.7739L10.3702 25.6572L11.269 22.3743L11.0574 22.0377C10.1669 20.6214 9.69658 18.9843 9.69727 17.3033C9.69921 12.3983 13.6901 8.40784 18.5972 8.40784C20.9734 8.40866 23.207 9.33518 24.8866 11.0168C26.5662 12.6983 27.4907 14.9334 27.4898 17.3105C27.4878 22.2159 23.497 26.2068 18.5937 26.2068H18.5901C16.9937 26.2062 15.428 25.7773 14.0621 24.9667L13.7373 24.7739ZM23.986 19.8564C23.9191 19.7448 23.7409 19.6779 23.4734 19.544C23.206 19.4101 21.8911 18.7632 21.6459 18.6739C21.4008 18.5846 21.2225 18.5401 21.0442 18.8077C20.866 19.0754 20.3534 19.6779 20.1974 19.8564C20.0414 20.0348 19.8854 20.0572 19.618 19.9233C19.3506 19.7894 18.4889 19.507 17.4673 18.5959C16.6723 17.8867 16.1355 17.011 15.9795 16.7432C15.8235 16.4755 15.9629 16.3308 16.0968 16.1974C16.2171 16.0775 16.3642 15.885 16.4979 15.7288C16.6317 15.5727 16.6762 15.4611 16.7654 15.2827C16.8545 15.1042 16.81 14.948 16.7431 14.8142C16.6762 14.6803 16.1414 13.3639 15.9185 12.8284C15.7014 12.3069 15.4809 12.3775 15.3168 12.3693C15.161 12.3615 14.9825 12.3598 14.8042 12.3598C14.6259 12.3598 14.3362 12.4268 14.091 12.6945C13.8459 12.9623 13.155 13.6093 13.155 14.9256C13.155 16.242 14.1133 17.5137 14.247 17.6922C14.3808 17.8707 16.1329 20.572 18.8157 21.7304C19.4538 22.006 19.9519 22.1705 20.3403 22.2938C20.981 22.4974 21.5641 22.4687 22.0248 22.3998C22.5387 22.323 23.6071 21.7528 23.8301 21.1282C24.0528 20.5033 24.0528 19.9679 23.986 19.8564Z" fill="#4788E8"/>
</svg>
