[
  {
    "img": "custom/wc/images/home-banner1.jpg",
    "title": "Обустройство колодцев, водоснабжение и водоочистка. Системы отопления. Монтаж септиков2.",
    "subtitle": "Бесплатно проконсультируем вас по телефону!",
    "button_text": "Заказать консультацию эксперта",
    "square1": {
      "digit": "24",
      "text1": "квалифицированных",
      "text2": "сотрудника"
    },
    "square2": {
      "digit": "2000+",
      "text1": "систем смотнитрованно",
      "text2": "за 12 лет продуктивной работы"
    }
  },
  {
    "img": "custom/wc/images/home-banner1.jpg",
    "title": "Обустройство колодцев, водоснабжение и водоочистка. Системы отопления. Монтаж септиков.",
    "subtitle": "Бесплатно проконсультируем вас по телефону!",
    "button_text": "Заказать консультацию эксперта",
    "square1": {
      "digit": "240",
      "text1": "квалифицированных",
      "text2": "сотрудника"
    },
    "square2": {
      "digit": "2000+",
      "text1": "систем смотнитрованно",
      "text2": "за 12 лет продуктивной работы"
    }
  }
]
